eBird Best Practices Workshop (ROC) - 3 eBird Status Data Products
…
species_list <- regional_stats %>%
  filter(region_code == "CL") %>%
  filter(season_code %in% c("breeding", "year_round")) %>%
  select(species_code, percent_population) %>% 
  arrange(desc(percent_population)) %>% 
  head(10)

# add common names, migrant/resident status, and quality
species_list <- species_list %>% 
  inner_join(ebirdst_runs, by = "species_code") %>% 
  mutate(quality = ifelse(resident, resident_quality, breeding_quality)) %>% 
  select(species_code, common_name, resident, quality, percent_population)
print(species_list)
#> # A tibble: 10 × 5
#>   species_code common_name                 resident quality percent_population
#>   <chr>        <chr>                       <lgl>    <chr>                <dbl>
#> 1 cthhue1      Chestnut-throated Huet-huet TRUE     3                    0.999
#> 2 chipig2      Chilean Pigeon              TRUE     3                    0.989
#> 3 chimoc1      Chilean Mockingbird         TRUE     1                    0.979
#> 4 grbfir1      Green-backed Firecrown      FALSE    2                    0.963
#> 5 chutap1      Chucao Tapaculo             TRUE     3                    0.918
#> 6 pattyr2      Patagonian Tyrant           FALSE    2                    0.868
#> # ℹ 4 more rows
…
